…
A confidence interval is one notion of a margin of error around an estimate. The margin of error acknowledges that the estimation process could have been misleading because of the variation in the sample. It gives a range that might contain the original parameter, along with a percentage of confidence. For example, a 95% confidence interval is one in which we would expect the interval to contain the true parameter for 95% of random samples. For any particular sample, any particular estimate, and any particular interval, the parameter is either contained or not; we never know for sure. The purpose of the confidence interval is to quantify how often our estimation process gives us a range containing the truth.

There are many different ways to compute a confidence interval. The challenge in computing a confidence interval from a single sample is that we don't know the population, and so we don't know how its samples will vary. One way to make progress despite this limited information is to assume that the variability within the sample is similar to the variability within the population.

Resampling from a Sample¶
Even though we happen to have the whole population of free_trips, let's imagine for a moment that we have only a single 100-trip sample from this population. That sample has 100 durations. Our goal now is to learn what we can about the population using just this sample.

sample = samples.where("Sample #", 0)
sample_average = np.average(sample.column('Duration'))
sample_average

577.78999999999996

A technique called bootstrap resampling uses the variability of the sample as a proxy for the variability of the population. Instead of drawing many samples from the population, we will draw many samples from the sample. Since the original sample and the re-sampled sample have the same size, we must draw with replacement in order to see any variability at all.

resamples = Table(['Resample #', 'Duration'])
for i in np.arange(40):
    for trip in sample.sample(n, with_replacement=True).rows:
        resamples.append([i, trip.item('Duration')])
resamples

            Resample # Duration

            0          1085    

            0          391     

            0          199     

            0          1216    

            0          1050    

            0          501     

            0          227     

            0          376     

            0          560     

            0          532     

... (3990 rows omitted)
…
