…
         26442,   45551,  -25262,  -61924,  -77633, -124744, -130875,
        -87307,   32193,  145721,  232575,  219028,  101505,  108011,
         30320,   32146,   71626,  -26032,  132941,  172814,  165522,
        257013,   73055,   86668,   32951, -115531, -181792, -257300,
       -112048,   13701,  122006,  100632, -142390, -237369, -234648,
       -198590, -107404,  -75525,   -5903,   -1357,   47674,  135163,
         79605,  146068,  200510,  200034,  233745,  196857,  168640,
        106319,  -27708,  412442,  370922,  377108,  408684,  106930,
        186411,  208733,  300041,  162045,  133520,  105766,   65048,
        108138,   49111,   32886,   22483,  -46470,  -11615,  -18887,
        -10426,   13582,  -11648,    6607,   19805,   14734,   28418,
         35570,   48714,   39280,   41472,   29578,   14959,   14810,
          9134,    9003,    6717,   13410, 4662996])

A table with an additional column can be created from an existing table using the with_column method, which takes a label and a sequence of values as arguments. There must be either as many values as there are existing rows in the table or a single value (which fills the column with that value).

change = simple.column('2014') - simple.column('2010')
annual_growth_rate = (simple.column('2014') / simple.column('2010')) ** (1/4) - 1
census = simple.with_column('Change', change).with_column('Growth', annual_growth_rate)
census

            SEX AGE 2010 2014 Change Growth

            0    0    3951330 3948350 -2980   -0.000188597

            0    1    3957888 3962123 4235    0.000267397 

            0    2    4090862 3957772 -133090 -0.00823453 

            0    3    4111920 4005190 -106730 -0.0065532  

            0    4    4077552 4003448 -74104  -0.00457471 

            0    5    4064653 4004858 -59795  -0.00369821 

            0    6    4073013 4134352 61339   0.00374389  

            0    7    4043047 4154000 110953  0.00679123  

            0    8    4025604 4119524 93920   0.00578232  

            0    9    4125415 4106832 -18583  -0.00112804 

... (296 rows omitted)
…
